^C:\USERS\USER\SOURCE\REPOS\DAVIDKLAPHOLTZ_EX5\DAVIDKLAPHOLTZ_EX5\SOURCE1.CPP
/c /ZI /JMC /nologo /W3 /WX- /diagnostics:column /sdl /Od /Oy- /D _MBCS /Gm- /EHsc /RTC1 /MDd /GS /fp:precise /permissive- /Zc:wchar_t /Zc:forScope /Zc:inline /Fo"DEBUG\\" /Fd"DEBUG\VC142.PDB" /Gd /TP /analyze- /FC C:\USERS\USER\SOURCE\REPOS\DAVIDKLAPHOLTZ_EX5\DAVIDKLAPHOLTZ_EX5\SOURCE1.CPP
^C:\USERS\USER\SOURCE\REPOS\DAVIDKLAPHOLTZ_EX5\DAVIDKLAPHOLTZ_EX5\ARROW.CPP
/c /ZI /JMC /nologo /W3 /WX- /diagnostics:column /sdl /Od /Oy- /D _MBCS /Gm- /EHsc /RTC1 /MDd /GS /fp:precise /permissive- /Zc:wchar_t /Zc:forScope /Zc:inline /Fo"DEBUG\\" /Fd"DEBUG\VC142.PDB" /Gd /TP /analyze- /FC C:\USERS\USER\SOURCE\REPOS\DAVIDKLAPHOLTZ_EX5\DAVIDKLAPHOLTZ_EX5\ARROW.CPP
^C:\USERS\USER\SOURCE\REPOS\DAVIDKLAPHOLTZ_EX5\DAVIDKLAPHOLTZ_EX5\CANVAS.CPP
/c /ZI /JMC /nologo /W3 /WX- /diagnostics:column /sdl /Od /Oy- /D _MBCS /Gm- /EHsc /RTC1 /MDd /GS /fp:precise /permissive- /Zc:wchar_t /Zc:forScope /Zc:inline /Fo"DEBUG\\" /Fd"DEBUG\VC142.PDB" /Gd /TP /analyze- /FC C:\USERS\USER\SOURCE\REPOS\DAVIDKLAPHOLTZ_EX5\DAVIDKLAPHOLTZ_EX5\CANVAS.CPP
^C:\USERS\USER\SOURCE\REPOS\DAVIDKLAPHOLTZ_EX5\DAVIDKLAPHOLTZ_EX5\CIRCLE.CPP
/c /ZI /JMC /nologo /W3 /WX- /diagnostics:column /sdl /Od /Oy- /D _MBCS /Gm- /EHsc /RTC1 /MDd /GS /fp:precise /permissive- /Zc:wchar_t /Zc:forScope /Zc:inline /Fo"DEBUG\\" /Fd"DEBUG\VC142.PDB" /Gd /TP /analyze- /FC C:\USERS\USER\SOURCE\REPOS\DAVIDKLAPHOLTZ_EX5\DAVIDKLAPHOLTZ_EX5\CIRCLE.CPP
^C:\USERS\USER\SOURCE\REPOS\DAVIDKLAPHOLTZ_EX5\DAVIDKLAPHOLTZ_EX5\MAIN.CPP
/c /ZI /JMC /nologo /W3 /WX- /diagnostics:column /sdl /Od /Oy- /D _MBCS /Gm- /EHsc /RTC1 /MDd /GS /fp:precise /permissive- /Zc:wchar_t /Zc:forScope /Zc:inline /Fo"DEBUG\\" /Fd"DEBUG\VC142.PDB" /Gd /TP /analyze- /FC C:\USERS\USER\SOURCE\REPOS\DAVIDKLAPHOLTZ_EX5\DAVIDKLAPHOLTZ_EX5\MAIN.CPP
^C:\USERS\USER\SOURCE\REPOS\DAVIDKLAPHOLTZ_EX5\DAVIDKLAPHOLTZ_EX5\POINT.CPP
/c /ZI /JMC /nologo /W3 /WX- /diagnostics:column /sdl /Od /Oy- /D _MBCS /Gm- /EHsc /RTC1 /MDd /GS /fp:precise /permissive- /Zc:wchar_t /Zc:forScope /Zc:inline /Fo"DEBUG\\" /Fd"DEBUG\VC142.PDB" /Gd /TP /analyze- /FC C:\USERS\USER\SOURCE\REPOS\DAVIDKLAPHOLTZ_EX5\DAVIDKLAPHOLTZ_EX5\POINT.CPP
^C:\USERS\USER\SOURCE\REPOS\DAVIDKLAPHOLTZ_EX5\DAVIDKLAPHOLTZ_EX5\POLYGON.CPP
/c /ZI /JMC /nologo /W3 /WX- /diagnostics:column /sdl /Od /Oy- /D _MBCS /Gm- /EHsc /RTC1 /MDd /GS /fp:precise /permissive- /Zc:wchar_t /Zc:forScope /Zc:inline /Fo"DEBUG\\" /Fd"DEBUG\VC142.PDB" /Gd /TP /analyze- /FC C:\USERS\USER\SOURCE\REPOS\DAVIDKLAPHOLTZ_EX5\DAVIDKLAPHOLTZ_EX5\POLYGON.CPP
^C:\USERS\USER\SOURCE\REPOS\DAVIDKLAPHOLTZ_EX5\DAVIDKLAPHOLTZ_EX5\SHAPE .CPP
/c /ZI /JMC /nologo /W3 /WX- /diagnostics:column /sdl /Od /Oy- /D _MBCS /Gm- /EHsc /RTC1 /MDd /GS /fp:precise /permissive- /Zc:wchar_t /Zc:forScope /Zc:inline /Fo"DEBUG\\" /Fd"DEBUG\VC142.PDB" /Gd /TP /analyze- /FC C:\USERS\USER\SOURCE\REPOS\DAVIDKLAPHOLTZ_EX5\DAVIDKLAPHOLTZ_EX5\SHAPE .CPP
