^C:\USERS\USER\SOURCE\REPOS\DAVIDKLAPHOLTZ_EX5\DAVIDKLAPHOLTZ_EX5\ARROW.CPP|C:\USERS\USER\SOURCE\REPOS\DAVIDKLAPHOLTZ_EX5\DAVIDKLAPHOLTZ_EX5\CANVAS.CPP|C:\USERS\USER\SOURCE\REPOS\DAVIDKLAPHOLTZ_EX5\DAVIDKLAPHOLTZ_EX5\CIRCLE.CPP|C:\USERS\USER\SOURCE\REPOS\DAVIDKLAPHOLTZ_EX5\DAVIDKLAPHOLTZ_EX5\MAIN.CPP|C:\USERS\USER\SOURCE\REPOS\DAVIDKLAPHOLTZ_EX5\DAVIDKLAPHOLTZ_EX5\MENU.CPP|C:\USERS\USER\SOURCE\REPOS\DAVIDKLAPHOLTZ_EX5\DAVIDKLAPHOLTZ_EX5\POINT.CPP|C:\USERS\USER\SOURCE\REPOS\DAVIDKLAPHOLTZ_EX5\DAVIDKLAPHOLTZ_EX5\POLYGON.CPP|C:\USERS\USER\SOURCE\REPOS\DAVIDKLAPHOLTZ_EX5\DAVIDKLAPHOLTZ_EX5\RECTANGLE.CPP|C:\USERS\USER\SOURCE\REPOS\DAVIDKLAPHOLTZ_EX5\DAVIDKLAPHOLTZ_EX5\SHAPE .CPP|C:\USERS\USER\SOURCE\REPOS\DAVIDKLAPHOLTZ_EX5\DAVIDKLAPHOLTZ_EX5\SOURCE1.CPP|C:\USERS\USER\SOURCE\REPOS\DAVIDKLAPHOLTZ_EX5\DAVIDKLAPHOLTZ_EX5\TRIANGLE.CPP
C:\USERS\USER\SOURCE\REPOS\DAVIDKLAPHOLTZ_EX5\DAVIDKLAPHOLTZ_EX5\DEBUG\VC142.PDB
C:\USERS\USER\SOURCE\REPOS\DAVIDKLAPHOLTZ_EX5\DAVIDKLAPHOLTZ_EX5\DEBUG\VC142.IDB
C:\USERS\USER\SOURCE\REPOS\DAVIDKLAPHOLTZ_EX5\DAVIDKLAPHOLTZ_EX5\DEBUG\SOURCE1.OBJ
^C:\USERS\USER\SOURCE\REPOS\DAVIDKLAPHOLTZ_EX5\DAVIDKLAPHOLTZ_EX5\SOURCE1.CPP
C:\USERS\USER\SOURCE\REPOS\DAVIDKLAPHOLTZ_EX5\DAVIDKLAPHOLTZ_EX5\DEBUG\SOURCE1.OBJ
^C:\USERS\USER\SOURCE\REPOS\DAVIDKLAPHOLTZ_EX5\DAVIDKLAPHOLTZ_EX5\POINT.CPP|C:\USERS\USER\SOURCE\REPOS\DAVIDKLAPHOLTZ_EX5\DAVIDKLAPHOLTZ_EX5\POLYGON.CPP|C:\USERS\USER\SOURCE\REPOS\DAVIDKLAPHOLTZ_EX5\DAVIDKLAPHOLTZ_EX5\RECTANGLE.CPP|C:\USERS\USER\SOURCE\REPOS\DAVIDKLAPHOLTZ_EX5\DAVIDKLAPHOLTZ_EX5\SHAPE .CPP|C:\USERS\USER\SOURCE\REPOS\DAVIDKLAPHOLTZ_EX5\DAVIDKLAPHOLTZ_EX5\TRIANGLE.CPP
C:\USERS\USER\SOURCE\REPOS\DAVIDKLAPHOLTZ_EX5\DAVIDKLAPHOLTZ_EX5\DEBUG\VC142.PDB
C:\USERS\USER\SOURCE\REPOS\DAVIDKLAPHOLTZ_EX5\DAVIDKLAPHOLTZ_EX5\DEBUG\VC142.IDB
C:\USERS\USER\SOURCE\REPOS\DAVIDKLAPHOLTZ_EX5\DAVIDKLAPHOLTZ_EX5\DEBUG\POLYGON.OBJ
^C:\USERS\USER\SOURCE\REPOS\DAVIDKLAPHOLTZ_EX5\DAVIDKLAPHOLTZ_EX5\ARROW.CPP|C:\USERS\USER\SOURCE\REPOS\DAVIDKLAPHOLTZ_EX5\DAVIDKLAPHOLTZ_EX5\CIRCLE.CPP|C:\USERS\USER\SOURCE\REPOS\DAVIDKLAPHOLTZ_EX5\DAVIDKLAPHOLTZ_EX5\MAIN.CPP|C:\USERS\USER\SOURCE\REPOS\DAVIDKLAPHOLTZ_EX5\DAVIDKLAPHOLTZ_EX5\MENU.CPP|C:\USERS\USER\SOURCE\REPOS\DAVIDKLAPHOLTZ_EX5\DAVIDKLAPHOLTZ_EX5\POINT.CPP|C:\USERS\USER\SOURCE\REPOS\DAVIDKLAPHOLTZ_EX5\DAVIDKLAPHOLTZ_EX5\POLYGON.CPP|C:\USERS\USER\SOURCE\REPOS\DAVIDKLAPHOLTZ_EX5\DAVIDKLAPHOLTZ_EX5\RECTANGLE.CPP|C:\USERS\USER\SOURCE\REPOS\DAVIDKLAPHOLTZ_EX5\DAVIDKLAPHOLTZ_EX5\SHAPE .CPP|C:\USERS\USER\SOURCE\REPOS\DAVIDKLAPHOLTZ_EX5\DAVIDKLAPHOLTZ_EX5\TRIANGLE.CPP
C:\USERS\USER\SOURCE\REPOS\DAVIDKLAPHOLTZ_EX5\DAVIDKLAPHOLTZ_EX5\DEBUG\VC142.PDB
C:\USERS\USER\SOURCE\REPOS\DAVIDKLAPHOLTZ_EX5\DAVIDKLAPHOLTZ_EX5\DEBUG\VC142.IDB
C:\USERS\USER\SOURCE\REPOS\DAVIDKLAPHOLTZ_EX5\DAVIDKLAPHOLTZ_EX5\DEBUG\POLYGON.OBJ
C:\USERS\USER\SOURCE\REPOS\DAVIDKLAPHOLTZ_EX5\DAVIDKLAPHOLTZ_EX5\DEBUG\MENU.OBJ
C:\USERS\USER\SOURCE\REPOS\DAVIDKLAPHOLTZ_EX5\DAVIDKLAPHOLTZ_EX5\DEBUG\MAIN.OBJ
C:\USERS\USER\SOURCE\REPOS\DAVIDKLAPHOLTZ_EX5\DAVIDKLAPHOLTZ_EX5\DEBUG\CIRCLE.OBJ
^C:\USERS\USER\SOURCE\REPOS\DAVIDKLAPHOLTZ_EX5\DAVIDKLAPHOLTZ_EX5\ARROW.CPP|C:\USERS\USER\SOURCE\REPOS\DAVIDKLAPHOLTZ_EX5\DAVIDKLAPHOLTZ_EX5\CANVAS.CPP|C:\USERS\USER\SOURCE\REPOS\DAVIDKLAPHOLTZ_EX5\DAVIDKLAPHOLTZ_EX5\CIRCLE.CPP|C:\USERS\USER\SOURCE\REPOS\DAVIDKLAPHOLTZ_EX5\DAVIDKLAPHOLTZ_EX5\MAIN.CPP|C:\USERS\USER\SOURCE\REPOS\DAVIDKLAPHOLTZ_EX5\DAVIDKLAPHOLTZ_EX5\MENU.CPP|C:\USERS\USER\SOURCE\REPOS\DAVIDKLAPHOLTZ_EX5\DAVIDKLAPHOLTZ_EX5\POINT.CPP|C:\USERS\USER\SOURCE\REPOS\DAVIDKLAPHOLTZ_EX5\DAVIDKLAPHOLTZ_EX5\POLYGON.CPP|C:\USERS\USER\SOURCE\REPOS\DAVIDKLAPHOLTZ_EX5\DAVIDKLAPHOLTZ_EX5\RECTANGLE.CPP|C:\USERS\USER\SOURCE\REPOS\DAVIDKLAPHOLTZ_EX5\DAVIDKLAPHOLTZ_EX5\SHAPE .CPP|C:\USERS\USER\SOURCE\REPOS\DAVIDKLAPHOLTZ_EX5\DAVIDKLAPHOLTZ_EX5\TRIANGLE.CPP
C:\USERS\USER\SOURCE\REPOS\DAVIDKLAPHOLTZ_EX5\DAVIDKLAPHOLTZ_EX5\DEBUG\VC142.PDB
C:\USERS\USER\SOURCE\REPOS\DAVIDKLAPHOLTZ_EX5\DAVIDKLAPHOLTZ_EX5\DEBUG\VC142.IDB
C:\USERS\USER\SOURCE\REPOS\DAVIDKLAPHOLTZ_EX5\DAVIDKLAPHOLTZ_EX5\DEBUG\SHAPE .OBJ
C:\USERS\USER\SOURCE\REPOS\DAVIDKLAPHOLTZ_EX5\DAVIDKLAPHOLTZ_EX5\DEBUG\POLYGON.OBJ
C:\USERS\USER\SOURCE\REPOS\DAVIDKLAPHOLTZ_EX5\DAVIDKLAPHOLTZ_EX5\DEBUG\POINT.OBJ
C:\USERS\USER\SOURCE\REPOS\DAVIDKLAPHOLTZ_EX5\DAVIDKLAPHOLTZ_EX5\DEBUG\MAIN.OBJ
C:\USERS\USER\SOURCE\REPOS\DAVIDKLAPHOLTZ_EX5\DAVIDKLAPHOLTZ_EX5\DEBUG\CIRCLE.OBJ
C:\USERS\USER\SOURCE\REPOS\DAVIDKLAPHOLTZ_EX5\DAVIDKLAPHOLTZ_EX5\DEBUG\CANVAS.OBJ
C:\USERS\USER\SOURCE\REPOS\DAVIDKLAPHOLTZ_EX5\DAVIDKLAPHOLTZ_EX5\DEBUG\ARROW.OBJ
^C:\USERS\USER\SOURCE\REPOS\DAVIDKLAPHOLTZ_EX5\DAVIDKLAPHOLTZ_EX5\ARROW.CPP
C:\USERS\USER\SOURCE\REPOS\DAVIDKLAPHOLTZ_EX5\DAVIDKLAPHOLTZ_EX5\DEBUG\ARROW.OBJ
^C:\USERS\USER\SOURCE\REPOS\DAVIDKLAPHOLTZ_EX5\DAVIDKLAPHOLTZ_EX5\CANVAS.CPP
C:\USERS\USER\SOURCE\REPOS\DAVIDKLAPHOLTZ_EX5\DAVIDKLAPHOLTZ_EX5\DEBUG\CANVAS.OBJ
^C:\USERS\USER\SOURCE\REPOS\DAVIDKLAPHOLTZ_EX5\DAVIDKLAPHOLTZ_EX5\CIRCLE.CPP
C:\USERS\USER\SOURCE\REPOS\DAVIDKLAPHOLTZ_EX5\DAVIDKLAPHOLTZ_EX5\DEBUG\CIRCLE.OBJ
^C:\USERS\USER\SOURCE\REPOS\DAVIDKLAPHOLTZ_EX5\DAVIDKLAPHOLTZ_EX5\MAIN.CPP
C:\USERS\USER\SOURCE\REPOS\DAVIDKLAPHOLTZ_EX5\DAVIDKLAPHOLTZ_EX5\DEBUG\MAIN.OBJ
^C:\USERS\USER\SOURCE\REPOS\DAVIDKLAPHOLTZ_EX5\DAVIDKLAPHOLTZ_EX5\POINT.CPP
C:\USERS\USER\SOURCE\REPOS\DAVIDKLAPHOLTZ_EX5\DAVIDKLAPHOLTZ_EX5\DEBUG\POINT.OBJ
^C:\USERS\USER\SOURCE\REPOS\DAVIDKLAPHOLTZ_EX5\DAVIDKLAPHOLTZ_EX5\POLYGON.CPP
C:\USERS\USER\SOURCE\REPOS\DAVIDKLAPHOLTZ_EX5\DAVIDKLAPHOLTZ_EX5\DEBUG\POLYGON.OBJ
^C:\USERS\USER\SOURCE\REPOS\DAVIDKLAPHOLTZ_EX5\DAVIDKLAPHOLTZ_EX5\SHAPE .CPP
C:\USERS\USER\SOURCE\REPOS\DAVIDKLAPHOLTZ_EX5\DAVIDKLAPHOLTZ_EX5\DEBUG\SHAPE .OBJ
